{
    "coming": [
        {
            "id": 1283276,
            "img": "http://p1.meituan.net/w.h/movie/fcabb91dbae511e8a32af1deeb0c1cec204154.jpg",
            "wish": 31842,
            "wishst": 0,
            "nm": "大红包",
            "comingTitle": "4月30日 周四"
        },
        {
            "id": 1197077,
            "img": "http://p0.meituan.net/w.h/movie/07e0ee6c6f30700e6d4ab6774d95fc4f108727.jpg",
            "wish": 21554,
            "wishst": 0,
            "nm": "我的初恋十八岁",
            "comingTitle": "7月10日 周五"
        },
        {
            "id": 1301478,
            "img": "http://p0.meituan.net/w.h/movie/644b66958ccbeb8bac4955c52864c8881471793.jpg",
            "wish": 20204,
            "wishst": 0,
            "nm": "北平会馆",
            "comingTitle": "6月12日 周五"
        },
        {
            "id": 1241385,
            "img": "http://p0.meituan.net/w.h/movie/f52ccebd4f91402b6532f44a494713855261102.jpg",
            "wish": 16741,
            "wishst": 0,
            "nm": "秘密访客",
            "comingTitle": "6月25日 周四"
        },
        {
            "id": 1292570,
            "img": "http://p0.meituan.net/w.h/moviemachine/e10ceb90d2c06d3524d01d573ccf88fb7514998.jpg",
            "wish": 15217,
            "wishst": 0,
            "nm": "金禅降魔",
            "comingTitle": "5月8日 周五"
        },
        {
            "id": 247863,
            "img": "http://p0.meituan.net/w.h/movie/a06c36755e3e4e902235e9904cc1551b4677926.jpg",
            "wish": 10702,
            "wishst": 0,
            "nm": "印度奇游",
            "comingTitle": "5月1日 周五"
        },
        {
            "id": 1280270,
            "img": "http://p0.meituan.net/w.h/moviemachine/0c3f4cd8caf0f0848a54e3081349bdac22615677.jpg",
            "wish": 10003,
            "wishst": 0,
            "nm": "魔法学院",
            "comingTitle": "5月1日 周五"
        },
        {
            "id": 1301612,
            "img": "http://p0.meituan.net/w.h/movie/b907eadfcafa0bd594b3d4e44952c9cc18752.jpg",
            "wish": 7884,
            "wishst": 0,
            "nm": "今生只为遇见你",
            "comingTitle": "5月1日 周五"
        },
        {
            "id": 1302281,
            "img": "http://p0.meituan.net/w.h/moviemachine/1d2b4985d0187b437d41a73994ba2e191607376.jpg",
            "wish": 6122,
            "wishst": 0,
            "nm": "奇妙王国之魔法奇缘",
            "comingTitle": "5月1日 周五"
        },
        {
            "id": 1302405,
            "img": "http://p1.meituan.net/w.h/movie/81fe2197ef930c79624a28cc76c423835264620.png",
            "wish": 5601,
            "wishst": 0,
            "nm": "小公主艾薇拉与神秘王国2",
            "comingTitle": "5月1日 周五"
        }
    ],
    "paging": {
        "hasMore": true,
        "limit": 10,
        "offset": 0,
        "total": 20
    }
}
